 FILE_NAME
 REACTION
 BEAM_MASS TARGET_MASS THRESHOLD FINAL_STATE_MULTIPLICITY
 NUMBER_OF_DATA_POINTS
 POINT_NUMBER PLAB(GEV/C) PLAB_MIN PLAB_MAX SIG(MB) STA_ERR+ STA_ERR- SY_ER+(PCT) SY_ER-(PCT) REFERENCE FLAG
  FORMAT(I5,1X,4F11.5,2F8.4,1X,2F6.1,A)
 -------------------------------------------------------------------------------------------------------
 KPDEUT_TOTAL.DAT
 K+ DEUT --> X
 0.493680    1.875600      0.            0
 181
 1    0.36600    0.36417    0.36783    21.410     0.30000 0.30000    1.2  1.2  BOWEN 70         PR D2, 2599
 2    0.40500    0.40297    0.40703    21.970     0.26000 0.26000    1.2  1.2  BOWEN 70         PR D2, 2599
 3    0.44000    0.43780    0.44220    23.460     0.24000 0.24000    1.2  1.2  BOWEN 70         PR D2, 2599
 4    0.45300    0.45300    0.45300    23.980     1.0200  1.0200     2.6  2.6  KRAUSS 92        PR C46, 655
 5    0.47500    0.47262    0.47738    24.280     0.23000 0.23000    1.2  1.2  BOWEN 70         PR D2, 2599
 6    0.48800    0.49040    0.48560    25.330     0.55000 0.55000    1.1  1.1  WEISS 94         PR C49, 2569
 7    0.48800    0.48800    0.48800    25.600     0.80000 0.80000    1.8  1.8  KRAUSS 92        PR C46, 655
 8    0.50600    0.50347    0.50853    24.160     0.23000 0.23000    1.2  1.2  BOWEN 70         PR D2, 2599
 9    0.50700    0.50700    0.50700    26.020     0.85000 0.85000    1.2  1.2  KRAUSS 92        PR C46, 655
 10   0.53100    0.53270    0.52930    27.150     0.27000 0.27000    0.6  0.6  WEISS 94         PR C49, 2569
 11   0.53100    0.53100    0.53100    26.900     0.40000 0.40000    1.3  1.3  KRAUSS 92        PR C46, 655
 12   0.53600    0.53332    0.53868    24.700     0.24000 0.24000    1.2  1.2  BOWEN 70         PR D2, 2599
 13   0.55900    0.55900    0.55900    26.550     0.68000 0.68000    1.4  1.4  KRAUSS 92        PR C46, 655
 14   0.56600    0.56317    0.56883    25.490     0.26000 0.26000    1.2  1.2  BOWEN 70         PR D2, 2599
 15   0.56900    0.56900    0.56900    25.400     0.90000 0.90000    0.0  0.0  BOWEN 72         PR D7, 22
 16   0.59200    0.58845    0.59555    26.710     1.2300  1.2300     0.4  0.4  BUGG 68          PR 168, 1466
 17   0.59300    0.59300    0.59300    26.300     0.90000 0.90000    0.0  0.0  BOWEN 72         PR D7, 22
 18   0.59600    0.59302    0.59898    26.370     0.28000 0.28000    1.2  1.2  BOWEN 70         PR D2, 2599
 19   0.61800    0.61800    0.61800    26.300     0.50000 0.50000    0.0  0.0  BOWEN 72         PR D7, 22
 20   0.62000    0.61628    0.62372    28.610     0.44000 0.44000    0.3  0.3  BUGG 68          PR 168, 1466
 21   0.62700    0.62386    0.63013    27.600     0.30000 0.30000    1.2  1.2  BOWEN 70         PR D2, 2599
 22   0.64000    0.64000    0.64000    25.600     5.0E-02 5.0E-02    5.0  5.0  GIACOMELLI 72    NP B37, 577
 23   0.64100    0.64100    0.64100    27.930     0.47000 0.47000    1.6  1.6  KRAUSS 92        PR C46, 655
 24   0.64300    0.64300    0.64300    26.400     0.70000 0.70000    0.0  0.0  BOWEN 72         PR D7, 22
 25   0.64400    0.64014    0.64786    28.130     0.44000 0.44000    0.4  0.4  BUGG 68          PR 168, 1466
 26   0.65600    0.65810    0.65390    28.150     0.20000 0.20000    0.5  0.5  WEISS 94         PR C49, 2569
 27   0.65600    0.65600    0.65600    28.200     0.30000 0.30000    1.4  1.4  KRAUSS 92        PR C46, 655
 28   0.65700    0.65371    0.66028    26.760     0.33000 0.33000    1.2  1.2  BOWEN 70         PR D2, 2599
 29   0.66800    0.66800    0.66800    26.500     0.40000 0.40000    0.0  0.0  BOWEN 72         PR D7, 22
 30   0.67600    0.67600    0.67600    27.800     0.45000 0.45000    1.1  1.1  KRAUSS 92        PR C46, 655
 31   0.68600    0.68257    0.68943    24.680     0.36000 0.36000    1.2  1.2  BOWEN 70         PR D2, 2599
 32   0.69800    0.69800    0.69800    27.300     0.60000 0.60000    0.0  0.0  BOWEN 72         PR D7, 22
 33   0.70300    0.70300    0.70300    27.810     0.57000 0.57000    1.2  1.2  KRAUSS 92        PR C46, 655
 34   0.71300    0.70872    0.71728    27.700     0.33000 0.33000    0.4  0.4  BUGG 68          PR 168, 1466
 35   0.71400    0.71640    0.71160    28.650     0.18000 0.18000    0.3  0.3  WEISS 94         PR C49, 2569
 36   0.71400    0.71400    0.71400    28.900     0.20000 0.20000    1.2  1.2  KRAUSS 92        PR C46, 655
 37   0.71700    0.71342    0.72059    25.130     0.41000 0.41000    1.2  1.2  BOWEN 70         PR D2, 2599
 38   0.72000    0.72000    0.72000    27.000     0.50000 0.50000    5.0  5.0  GIACOMELLI 72    NP B37, 577
 39   0.72700    0.72700    0.72700    27.900     0.60000 0.60000    0.0  0.0  BOWEN 72         PR D7, 22
 40   0.74000    0.74000    0.74000    29.650     0.80000 0.80000    1.2  1.2  KRAUSS 92        PR C46, 655
 41   0.75700    0.75700    0.75700    28.100     0.35000 0.35000    0.0  0.0  BOWEN 72         PR D7, 22
 42   0.76800    0.76339    0.77261    28.980     0.30000 0.30000    0.3  0.3  BUGG 68          PR 168, 1466
 43   0.77000    0.77000    0.77000    27.300     0.60000 0.60000    1.1  1.1  COOK 61          PRL 7, 182
 44   0.78000    0.78000    0.78000    28.200     0.50000 0.50000    5.0  5.0  GIACOMELLI 72    NP B37, 577
 45   0.78600    0.78600    0.78600    28.300     0.45000 0.45000    0.0  0.0  BOWEN 72         PR D7, 22
 46   0.81700    0.81700    0.81700    28.900     0.35000 0.35000    0.0  0.0  BOWEN 72         PR D7, 22
 47   0.82300    0.81806    0.82794    29.560     0.22000 0.22000    0.3  0.3  BUGG 68          PR 168, 1466
 48   0.84600    0.84600    0.84600    29.300     0.50000 0.50000    0.0  0.0  BOWEN 72         PR D7, 22
 49   0.85000    0.85000    0.85000    29.700     0.50000 0.50000    5.0  5.0  GIACOMELLI 72    NP B37, 577
 50   0.86400    0.85882    0.86918    30.330     0.21000 0.21000    0.3  0.3  BUGG 68          PR 168, 1466
 51   0.88100    0.88100    0.88100    30.300     0.30000 0.30000    0.0  0.0  BOWEN 72         PR D7, 22
 52   0.88800    0.87912    0.89688    30.100     0.36000 0.36000    1.0  1.0  COOL 70          PR D1, 1887
 53   0.90000    0.90000    0.90000    30.800     0.40000 0.40000    5.0  5.0  GIACOMELLI 72    NP B37, 577
 54   0.90400    0.89858    0.90942    31.270     0.20000 0.20000    0.3  0.3  BUGG 68          PR 168, 1466
 55   0.91600    0.91600    0.91600    30.750     0.40000 0.40000    0.0  0.0  BOWEN 72         PR D7, 22
 56   0.93800    0.93237    0.94363    32.140     0.18000 0.18000    0.3  0.3  BUGG 68          PR 168, 1466
 57   0.93900    0.92961    0.94839    31.980     0.34000 0.34000    1.0  1.0  COOL 70          PR D1, 1887
 58   0.95100    0.95100    0.95100    32.100     0.30000 0.30000    0.0  0.0  BOWEN 72         PR D7, 22
 59   0.96900    0.96319    0.97481    32.720     0.19000 0.19000    0.3  0.3  BUGG 68          PR 168, 1466
 60   0.97000    0.97000    0.97000    32.400     0.50000 0.50000    0.9  0.9  COOK 61          PRL 7, 182
 61   0.98000    0.98000    0.98000    32.900     0.40000 0.40000    5.0  5.0  GIACOMELLI 72    NP B37, 577
 62   0.98500    0.98500    0.98500    32.900     0.40000 0.40000    0.0  0.0  BOWEN 72         PR D7, 22
 63   0.98900    0.97911    0.99889    33.200     0.24000 0.24000    1.0  1.0  COOL 70          PR D1, 1887
 64   1.02000    1.02000    1.02000    34.500     0.40000 0.40000    0.0  0.0  BOWEN 72         PR D7, 22
 65   1.02900    1.02283    1.03517    34.290     0.16000 0.16000    0.3  0.3  BUGG 68          PR 168, 1466
 66   1.04000    1.02960    1.05040    34.770     0.24000 0.24000    1.0  1.0  COOL 70          PR D1, 1887
 67   1.05500    1.05500    1.05500    34.950     0.40000 0.40000    0.0  0.0  BOWEN 72         PR D7, 22
 68   1.06000    1.06000    1.06000    35.000     0.40000 0.40000    5.0  5.0  GIACOMELLI 72    NP B37, 577
 69   1.08400    1.07750    1.09050    35.900     0.15000 0.15000    0.3  0.3  BUGG 68          PR 168, 1466
 70   1.09000    1.09000    1.09000    36.350     0.40000 0.40000    0.0  0.0  BOWEN 72         PR D7, 22
 71   1.09100    1.08009    1.10191    36.040     0.24000 0.24000    1.0  1.0  COOL 70          PR D1, 1887
 72   1.12500    1.12500    1.12500    36.800     0.40000 0.40000    0.0  0.0  BOWEN 72         PR D7, 22
 73   1.13000    1.13000    1.13000    37.000     0.40000 0.40000    5.0  5.0  GIACOMELLI 72    NP B37, 577
 74   1.14000    1.13316    1.14684    37.340     0.15000 0.15000    0.3  0.3  BUGG 68          PR 168, 1466
 75   1.14100    1.12959    1.15241    37.220     0.15000 0.15000    1.0  1.0  COOL 70          PR D1, 1887
 76   1.16000    1.16000    1.16000    37.700     0.40000 0.40000    0.0  0.0  BOWEN 72         PR D7, 22
 77   1.17000    1.17000    1.17000    35.400     0.50000 0.50000    0.9  0.9  COOK 61          PRL 7, 182
 78   1.18900    1.18187    1.19613    37.360     0.15000 0.15000    0.3  0.3  BUGG 68          PR 168, 1466
 79   1.19100    1.17909    1.20291    37.690     0.12000 0.12000    1.0  1.0  COOL 70          PR D1, 1887
 80   1.21000    1.21000    1.21000    37.600     0.40000 0.40000    5.0  5.0  GIACOMELLI 72    NP B37, 577
 81   1.23800    1.23057    1.24543    37.460     0.23000 0.23000    0.3  0.3  BUGG 68          PR 168, 1466
 82   1.24200    1.22958    1.25442    37.570     0.11000 0.11000    1.0  1.0  COOL 70          PR D1, 1887
 83   1.29000    1.29000    1.29000    37.400     0.40000 0.40000    5.0  5.0  GIACOMELLI 72    NP B37, 577
 84   1.29200    1.27908    1.30492    37.430     0.10000 0.10000    1.0  1.0  COOL 70          PR D1, 1887
 85   1.29300    1.28524    1.30076    37.430     0.13000 0.13000    0.3  0.3  BUGG 68          PR 168, 1466
 86   1.30000    1.30000    1.30000    35.600     0.60000 0.60000    0.8  0.8  COOK 61          PRL 7, 182
 87   1.34200    1.32858    1.35542    36.990     0.12000 0.12000    1.0  1.0  COOL 70          PR D1, 1887
 88   1.34700    1.33892    1.35508    37.410     0.15000 0.15000    0.3  0.3  BUGG 68          PR 168, 1466
 89   1.35000    1.35000    1.35000    37.100     0.40000 0.40000    5.0  5.0  GIACOMELLI 72    NP B37, 577
 90   1.39200    1.37808    1.40592    36.780     0.12000 0.12000    1.0  1.0  COOL 70          PR D1, 1887
 91   1.40800    1.39955    1.41645    36.920     0.13000 0.13000    0.3  0.3  BUGG 68          PR 168, 1466
 92   1.42000    1.42000    1.42000    36.600     0.40000 0.40000    5.0  5.0  GIACOMELLI 72    NP B37, 577
 93   1.44000    1.44000    1.44000    35.400     0.50000 0.50000    0.9  0.9  COOK 61          PRL 7, 182
 94   1.44200    1.42758    1.45642    36.430     0.10000 0.10000    1.0  1.0  COOL 70          PR D1, 1887
 95   1.46800    1.45919    1.47681    36.530     0.15000 0.15000    0.3  0.3  BUGG 68          PR 168, 1466
 96   1.49200    1.47708    1.50692    36.270     0.10000 0.10000    1.0  1.0  COOL 70          PR D1, 1887
 97   1.51000    1.51000    1.51000    36.200     0.40000 0.40000    5.0  5.0  GIACOMELLI 72    NP B37, 577
 98   1.55000    1.54225    1.55775    36.030     0.11000 0.11000    1.0  1.0  ABRAMS 70        PR D1, 1917
 99   1.56300    1.55362    1.57238    36.290     0.12000 0.12000    0.3  0.3  BUGG 68          PR 168, 1466
 100  1.59300    1.57707    1.60893    35.890     8.0E-02 8.0E-02    1.0  1.0  COOL 70          PR D1, 1887
 101  1.60000    1.59200    1.60800    35.940     0.11000 0.11000    1.0  1.0  ABRAMS 70        PR D1, 1917
 102  1.64300    1.62657    1.65943    35.780     8.0E-02 8.0E-02    1.0  1.0  COOL 70          PR D1, 1887
 103  1.69000    1.69000    1.69000    35.100     0.50000 0.50000    0.9  0.9  COOK 61          PRL 7, 182
 104  1.69300    1.67607    1.70993    35.760     6.0E-02 6.0E-02    1.0  1.0  COOL 70          PR D1, 1887
 105  1.70000    1.69150    1.70850    35.780     8.0E-02 8.0E-02    1.0  1.0  ABRAMS 70        PR D1, 1917
 106  1.74300    1.72557    1.76043    35.890     6.0E-02 6.0E-02    1.0  1.0  COOL 70          PR D1, 1887
 107  1.75000    1.74125    1.75875    35.900     9.0E-02 9.0E-02    1.0  1.0  ABRAMS 70        PR D1, 1917
 108  1.79300    1.77507    1.81093    35.700     6.0E-02 6.0E-02    1.0  1.0  COOL 70          PR D1, 1887
 109  1.80000    1.79100    1.80900    35.680     0.10000 0.10000    1.0  1.0  ABRAMS 70        PR D1, 1917
 110  1.85000    1.84075    1.85925    35.630     7.0E-02 7.0E-02    1.0  1.0  ABRAMS 70        PR D1, 1917
 111  1.89300    1.87407    1.91193    35.530     6.0E-02 6.0E-02    1.0  1.0  COOL 70          PR D1, 1887
 112  1.90000    1.89050    1.90950    35.700     7.0E-02 7.0E-02    1.0  1.0  ABRAMS 70        PR D1, 1917
 113  1.94500    1.93333    1.95667    35.190     0.13000 0.13000    0.3  0.3  BUGG 68          PR 168, 1466
 114  1.95000    1.94025    1.95975    35.690     6.0E-02 6.0E-02    1.0  1.0  ABRAMS 70        PR D1, 1917
 115  1.97000    1.97000    1.97000    34.600     0.50000 0.50000    0.9  0.9  COOK 61          PRL 7, 182
 116  1.99300    1.97307    2.01293    35.410     8.0E-02 8.0E-02    1.0  1.0  COOL 70          PR D1, 1887
 117  2.00000    1.99000    2.01000    35.680     5.0E-02 5.0E-02    1.0  1.0  ABRAMS 70        PR D1, 1917
 118  2.05000    2.03975    2.06025    35.550     7.0E-02 7.0E-02    1.0  1.0  ABRAMS 70        PR D1, 1917
 119  2.09300    2.07207    2.11393    35.470     8.0E-02 8.0E-02    1.0  1.0  COOL 70          PR D1, 1887
 120  2.10000    2.08950    2.11050    35.340     8.0E-02 8.0E-02    1.0  1.0  ABRAMS 70        PR D1, 1917
 121  2.15000    2.13925    2.16075    35.280     7.0E-02 7.0E-02    1.0  1.0  ABRAMS 70        PR D1, 1917
 122  2.19300    2.17107    2.21493    35.220     0.10000 0.10000    1.0  1.0  COOL 70          PR D1, 1887
 123  2.20000    2.18900    2.21100    35.280     7.0E-02 7.0E-02    1.0  1.0  ABRAMS 70        PR D1, 1917
 124  2.26000    2.26000    2.26000    33.900     0.60000 0.60000    0.9  0.9  COOK 61          PRL 7, 182
 125  2.30000    2.28850    2.31150    34.980     7.0E-02 7.0E-02    1.0  1.0  ABRAMS 70        PR D1, 1917
 126  2.35000    2.33825    2.36175    35.050     6.0E-02 6.0E-02    1.0  1.0  ABRAMS 70        PR D1, 1917
 127  2.39300    2.36907    2.41693    35.450     8.0E-02 8.0E-02    1.0  1.0  COOL 70          PR D1, 1887
 128  2.40000    2.38800    2.41200    34.920     6.0E-02 6.0E-02    1.0  1.0  ABRAMS 70        PR D1, 1917
 129  2.45000    2.43775    2.46225    35.000     5.0E-02 5.0E-02    1.0  1.0  ABRAMS 70        PR D1, 1917
 130  2.47300    2.45816    2.48784    34.780     0.11000 0.11000    0.0  0.0  BUGG 68          PR 168, 1466
 131  2.50000    2.48750    2.51250    34.870     6.0E-02 6.0E-02    1.0  1.0  ABRAMS 70        PR D1, 1917
 132  2.55000    2.53725    2.56275    34.870     4.0E-02 4.0E-02    1.0  1.0  ABRAMS 70        PR D1, 1917
 133  2.55000    2.55000    2.55000    33.400     0.50000 0.50000    0.9  0.9  COOK 61          PRL 7, 182
 134  2.60000    2.58700    2.61300    34.850     5.0E-02 5.0E-02    1.0  1.0  ABRAMS 70        PR D1, 1917
 135  2.65000    2.63675    2.66325    34.750     5.0E-02 5.0E-02    1.0  1.0  ABRAMS 70        PR D1, 1917
 136  2.70000    2.68650    2.71350    34.770     4.0E-02 4.0E-02    1.0  1.0  ABRAMS 70        PR D1, 1917
 137  2.75000    2.73625    2.76375    34.720     5.0E-02 5.0E-02    1.0  1.0  ABRAMS 70        PR D1, 1917
 138  2.80000    2.78600    2.81400    34.670     5.0E-02 5.0E-02    1.0  1.0  ABRAMS 70        PR D1, 1917
 139  2.83000    2.83000    2.83000    33.400     0.70000 0.70000    0.9  0.9  COOK 61          PRL 7, 182
 140  2.85000    2.83575    2.86425    34.520     5.0E-02 5.0E-02    1.0  1.0  ABRAMS 70        PR D1, 1917
 141  2.90000    2.88550    2.91450    34.480     4.0E-02 4.0E-02    1.0  1.0  ABRAMS 70        PR D1, 1917
 142  2.95000    2.93525    2.96475    34.420     4.0E-02 4.0E-02    1.0  1.0  ABRAMS 70        PR D1, 1917
 143  3.00000    2.98500    3.01500    34.350     4.0E-02 4.0E-02    1.0  1.0  ABRAMS 70        PR D1, 1917
 144  3.05000    3.03475    3.06525    34.340     4.0E-02 4.0E-02    1.0  1.0  ABRAMS 70        PR D1, 1917
 145  3.10000    3.08450    3.11550    34.300     4.0E-02 4.0E-02    1.0  1.0  ABRAMS 70        PR D1, 1917
 146  3.15000    3.13425    3.16575    34.140     4.0E-02 4.0E-02    1.0  1.0  ABRAMS 70        PR D1, 1917
 147  3.20000    3.18400    3.21600    34.120     4.0E-02 4.0E-02    1.0  1.0  ABRAMS 70        PR D1, 1917
 148  3.25000    3.23375    3.26625    34.200     4.0E-02 4.0E-02    1.0  1.0  ABRAMS 70        PR D1, 1917
 149  3.30000    3.28350    3.31650    34.130     4.0E-02 4.0E-02    1.0  1.0  ABRAMS 70        PR D1, 1917
 150  6.00000    5.89800    6.10200    33.400     0.30000 0.30000    1.4  1.4  GALBRAITH 65     PR 138, B913
 151  8.00000    7.86400    8.13600    33.900     0.30000 0.30000    1.4  1.4  GALBRAITH 65     PR 138, B913
 152  10.00000   9.83000    10.17000   33.800     0.30000 0.30000    1.0  1.0  GALBRAITH 65     PR 138, B913
 153  12.00000   11.79600   12.20400   33.900     0.30000 0.30000    1.0  1.0  GALBRAITH 65     PR 138, B913
 154  14.00000   13.76200   14.23800   33.800     0.30000 0.30000    1.0  1.0  GALBRAITH 65     PR 138, B913
 155  15.00000   15.00000   15.00000   34.440     0.20000 0.20000    0.5  0.5  DENISOV 71       PL 36B, 415
 156  16.00000   15.72800   16.27200   33.400     0.30000 0.30000    1.0  1.0  GALBRAITH 65     PR 138, B913
 157  18.00000   17.69400   18.30600   33.700     0.30000 0.30000    1.0  1.0  GALBRAITH 65     PR 138, B913
 158  20.00000   20.00000   20.00000   34.610     0.23000 0.23000    0.5  0.5  DENISOV 71       PL 36B, 415
 159  20.00000   19.66000   20.34000   34.200     0.30000 0.30000    1.0  1.0  GALBRAITH 65     PR 138, B913
 160  25.00000   25.00000   25.00000   34.710     0.20000 0.20000    0.5  0.5  DENISOV 71       PL 36B, 415
 161  30.00000   30.00000   30.00000   34.660     0.20000 0.20000    0.5  0.5  DENISOV 71       PL 36B, 415
 162  35.00000   35.00000   35.00000   35.150     0.20000 0.20000    0.5  0.5  DENISOV 71       PL 36B, 415
 163  35.00000   35.00000   35.00000   35.110     0.13000 0.13000    0.5  0.5  CARROLL 76       PL 61B, 303
 164  40.00000   40.00000   40.00000   35.420     0.20000 0.20000    0.5  0.5  DENISOV 71       PL 36B, 415
 165  45.00000   45.00000   45.00000   35.440     0.20000 0.20000    0.5  0.5  DENISOV 71       PL 36B, 415
 166  50.00000   50.00000   50.00000   35.600     0.20000 0.20000    0.5  0.5  DENISOV 71       PL 36B, 415
 167  50.00000   50.00000   50.00000   35.680     0.13000 0.13000    0.5  0.5  CARROLL 76       PL 61B, 303
 168  50.00000   50.00000   50.00000   35.550     0.16000 0.16000    0.6  0.6  CARROLL 74       PRL 33, 932
 169  55.00000   55.00000   55.00000   35.800     0.20000 0.20000    0.5  0.5  DENISOV 71       PL 36B, 415
 170  70.00000   70.00000   70.00000   36.060     0.13000 0.13000    0.5  0.5  CARROLL 76       PL 61B, 303
 171  100.00000  100.00000  100.00000  36.810     0.11000 0.11000    0.5  0.5  CARROLL 76       PL 61B, 303
 172  100.00000  100.00000  100.00000  36.720     0.14000 0.14000    0.6  0.6  CARROLL 74       PRL 33, 932
 173  120.00000  120.00000  120.00000  37.230     0.12000 0.12000    0.5  0.5  CARROLL 76       PL 61B, 303
 174  150.00000  150.00000  150.00000  37.810     0.11000 0.11000    0.5  0.5  CARROLL 76       PL 61B, 303
 175  150.00000  150.00000  150.00000  37.710     0.14000 0.14000    0.6  0.6  CARROLL 74       PRL 33, 932
 176  170.00000  170.00000  170.00000  38.180     0.10000 0.10000    0.5  0.5  CARROLL 76       PL 61B, 303
 177  200.00000  200.00000  200.00000  38.420     0.10000 0.10000    0.7  0.7  CARROLL 79       PL 80B, 423
 178  200.00000  200.00000  200.00000  38.440     0.17000 0.17000    0.6  0.6  CARROLL 74       PRL 33, 932
 179  240.00000  240.00000  240.00000  39.320     0.10000 0.10000    0.7  0.7  CARROLL 79       PL 80B, 423
 180  280.00000  280.00000  280.00000  39.760     0.10000 0.10000    0.7  0.7  CARROLL 79       PL 80B, 423
 181  310.00000  310.00000  310.00000  40.140     0.21000 0.21000    0.7  0.7  CARROLL 79       PL 80B, 423
